{"frames": {

"lizard":
{
	"frame": {"x":1,"y":1,"w":197,"h":277},
	"rotated": false,
	"trimmed": true,
	"spriteSourceSize": {"x":112,"y":61,"w":197,"h":277},
	"sourceSize": {"w":400,"h":400}
},
"paper":
{
	"frame": {"x":532,"y":1,"w":340,"h":183},
	"rotated": false,
	"trimmed": true,
	"spriteSourceSize": {"x":39,"y":112,"w":340,"h":183},
	"sourceSize": {"w":400,"h":400}
},
"rock":
{
	"frame": {"x":554,"y":186,"w":248,"h":213},
	"rotated": false,
	"trimmed": true,
	"spriteSourceSize": {"x":77,"y":91,"w":248,"h":213},
	"sourceSize": {"w":400,"h":400}
},
"scissors":
{
	"frame": {"x":200,"y":239,"w":352,"h":168},
	"rotated": false,
	"trimmed": true,
	"spriteSourceSize": {"x":32,"y":139,"w":352,"h":168},
	"sourceSize": {"w":400,"h":400}
},
"spock":
{
	"frame": {"x":200,"y":1,"w":330,"h":236},
	"rotated": false,
	"trimmed": true,
	"spriteSourceSize": {"x":34,"y":55,"w":330,"h":236},
	"sourceSize": {"w":400,"h":400}
}},
"meta": {
	"app": "http://www.codeandweb.com/texturepacker",
	"version": "1.0",
	"image": "hand_moves.png",
	"format": "RGBA8888",
	"size": {"w":873,"h":408},
	"scale": "1",
	"smartupdate": "$TexturePacker:SmartUpdate:058dd89b8580670a3d32b71e0afdff47:c3afe244773e203ce233b574dc6645d1:2f44c32e5dcff8820a5c6c5dfb32d9f5$"
}
}
